﻿2019-07-31T10:17:25.2991243+10:00;VSTestExecutionThread;Info;SpecFlow+Runner execution started
2019-07-31T10:17:25.2991243+10:00;VSTestExecutionThread;Info;SpecFlow+Runner 3.0.352 in Framework clr40 in x86 mode execution started
2019-07-31T10:17:25.2991243+10:00;VSTestExecutionThread;Info;TestAdapter Location: C:\Users\09946103\OneDrive - VIC - Department of Education and Training\Documents\SOCS\SOCS AT2\SOCS-AutomationTest\SOCS_SmokeTest\bin\Debug\TechTalk.SpecRun.VisualStudio.TestAdapter.dll
2019-07-31T10:17:25.5561251+10:00;VSTestExecutionThread;Info;SpecRun: running tests in C:\Users\09946103\OneDrive - VIC - Department of Education and Training\Documents\SOCS\SOCS AT2\SOCS-AutomationTest\SOCS_SmokeTest\bin\Debug\SOCS_SmokeTest.dll
2019-07-31T10:17:25.5561251+10:00;VSTestExecutionThread;Info;Output folder configured to "C:\Users\09946103\OneDrive - VIC - Department of Education and Training\Documents\SOCS\SOCS AT2\SOCS-AutomationTest\TestResults" (default)
2019-07-31T10:17:25.5571243+10:00;VSTestExecutionThread;Info;Profile: SOCS_SmokeTest
2019-07-31T10:17:25.5941250+10:00;VSTestExecutionThread;Info;Log file path: C:\Users\09946103\OneDrive - VIC - Department of Education and Training\Documents\SOCS\SOCS AT2\SOCS-AutomationTest\TestResults\SOCS_SmokeTest_SOCS_SmokeTest_2019-07-31T101725.log
2019-07-31T10:17:25.6091243+10:00;Thread#13;Info;Checking license
2019-07-31T10:17:25.6161243+10:00;Thread#13;Info;License check completed
2019-07-31T10:17:25.6171264+10:00;Thread#13;Info;starting test run
2019-07-31T10:17:25.6261267+10:00;Thread#13;Info;Discovering target: Default
2019-07-31T10:17:25.6271272+10:00;Thread#13;Info;Discovering tests from assembly: C:\Users\09946103\OneDrive - VIC - Department of Education and Training\Documents\SOCS\SOCS AT2\SOCS-AutomationTest\SOCS_SmokeTest\bin\Debug\SOCS_SmokeTest.dll
2019-07-31T10:17:26.0341248+10:00:Appdomain Disposed
2019-07-31T10:17:26.0341248+10:00;Thread#13;Info;Discovered tests from assembly: C:\Users\09946103\OneDrive - VIC - Department of Education and Training\Documents\SOCS\SOCS AT2\SOCS-AutomationTest\SOCS_SmokeTest\bin\Debug\SOCS_SmokeTest.dll
2019-07-31T10:17:26.0341248+10:00:Test Suite Dump
2019-07-31T10:17:26.0361233+10:00:#0: SOCS_SmokeTest/SOCS_SmokeTest - 
2019-07-31T10:17:26.0361233+10:00:#1: Default - 
2019-07-31T10:17:26.0371248+10:00:#2: SOCS_SmokeTest - 
2019-07-31T10:17:26.0371248+10:00:#75: TestJourney18_E2E_ProgramRequest_Reopen_MentalHealth - 
2019-07-31T10:17:26.0761266+10:00:#76: Create>Submit>AssignCaseLeader>AssignCaseWorker>Close>Reopen>MentalHealth - TestAssembly:SOCS_SmokeTest/Feature:TestJourney18_E2E_ProgramRequest_Reopen_MentalHealth/Scenario:Create%3eSubmit%3eAssignCaseLeader%3eAssignCaseWorker%3eClose%3eReopen%3eMentalHealth
2019-07-31T10:17:26.0761266+10:00:End: Test Suite Dump
2019-07-31T10:17:26.1021269+10:00:Thread#0:Scheduler: get next test for thread 0
2019-07-31T10:17:26.1031229+10:00:Thread#:Scheduler: testitem #76 from normal test queue 
2019-07-31T10:17:26.1031229+10:00:Thread#0:Scheduler: considering testitem #76 for thread 0
2019-07-31T10:17:26.1071237+10:00:Thread#0:TestItem#76:testItemMatchesCurrentTestThread:UnSpecific
2019-07-31T10:17:26.1071237+10:00:Thread#0:TestItem#76:runsOnOneOtherThreadSpecific:False
2019-07-31T10:17:26.1071237+10:00:Thread#0:TestItem#76:runsOnOneOtherThreadUnspecific:False
2019-07-31T10:17:26.1071237+10:00:Thread#0:Scheduler: using testitem #76 for thread 0
2019-07-31T10:17:26.1081239+10:00:Thread#0:Scheduler: Test #76 is scheduled for thread
2019-07-31T10:17:26.1091233+10:00:Thread#0:Scheduler: with testItemExecutionIndex 0
2019-07-31T10:17:26.1111295+10:00:Thread #0: creating new test thread executor for SOCS_SmokeTest, Version=0.0.0.0, Culture=neutral, PublicKeyToken=null (target: Default)
2019-07-31T10:17:26.1131251+10:00:Thread #0: Creating test assembly executor for execution model AppDomain
2019-07-31T10:17:26.1131251+10:00:Thread #0: Creating test assembly executor for execution model AppDomain
2019-07-31T10:17:26.1131251+10:00:using TechTalk.SpecRun.Framework.Execution.InProcess.InProcAppDomainTestAssemblyExecutorHost to execute tests
2019-07-31T10:17:26.2501250+10:00:Thread#0: Test #76/0 is started on thread #0
2019-07-31T10:17:26.7281273+10:00:Thread#0:T:-> Loading plugin C:\Users\09946103\OneDrive - VIC - Department of Education and Training\Documents\SOCS\SOCS AT2\SOCS-AutomationTest\SOCS_SmokeTest\bin\Debug\SpecRun.Runtime.SpecFlowPlugin.dll
2019-07-31T10:17:26.7691250+10:00:Thread#0:T:-> Using default config
2019-07-31T10:17:26.8951260+10:00:Thread#0:B:Given I navigate to SOCS application homepage
2019-07-31T10:17:40.1736722+10:00:Thread#0:T:done: SmokeSOCS_Steps.GivenINavigateToSOCSApplicationHomepage() (13.1s)
2019-07-31T10:17:40.1746733+10:00:Thread#0:B:When I login using SchoolPrincipal username and password
2019-07-31T10:17:40.4206733+10:00:Thread#0:T:done: SmokeSOCS_Steps.GivenILoginUsingSchoolPrincipalUsernameAndPassword() (0.2s)
2019-07-31T10:17:40.4216735+10:00:Thread#0:B:And I press login button
2019-07-31T10:17:41.3916746+10:00:Thread#0:T:done: SmokeSOCS_Steps.WhenIPressLoginButton() (1.0s)
2019-07-31T10:17:41.3926750+10:00:Thread#0:B:Then I click Create Program Request submenu
2019-07-31T10:17:43.9386725+10:00:Thread#0:T:done: SmokeSOCS_Steps.ThenIClickCreateProgramRequestSubmenu() (2.5s)
2019-07-31T10:17:43.9467096+10:00:Thread#0:B:And I fill in program request details - Mental Health as Primary Presenting Issue
2019-07-31T10:17:43.9467096+10:00:Thread#0:B:  --- table step argument ---
2019-07-31T10:17:43.9467096+10:00:Thread#0:B:  | Primary Presenting Issue |
2019-07-31T10:17:43.9467096+10:00:Thread#0:B:  | Mental Health            |
2019-07-31T10:17:43.9516744+10:00:Thread#0:T:done: SmokeSOCS_Steps.ThenIFillInProgramRequestDetails_MentalHealthAsPrimaryPresentingIssue(<table>) (0.0s)
2019-07-31T10:17:43.9516744+10:00:Thread#0:B:And I select multiple students for the program request
