﻿2019-07-24T10:39:14.0040134+10:00;VSTestExecutionThread;Info;SpecFlow+Runner execution started
2019-07-24T10:39:14.0040134+10:00;VSTestExecutionThread;Info;SpecFlow+Runner 3.0.352 in Framework clr40 in x86 mode execution started
2019-07-24T10:39:14.0040134+10:00;VSTestExecutionThread;Info;TestAdapter Location: C:\Users\09976245\source\repos\SOCS_Automation\SOCS-AutomationTest\SOCS_SmokeTest\bin\Debug\TechTalk.SpecRun.VisualStudio.TestAdapter.dll
2019-07-24T10:39:14.1167049+10:00;VSTestExecutionThread;Info;SpecRun: running tests in C:\Users\09976245\source\repos\SOCS_Automation\SOCS-AutomationTest\SOCS_SmokeTest\bin\Debug\SOCS_SmokeTest.dll
2019-07-24T10:39:14.1167049+10:00;VSTestExecutionThread;Info;Output folder configured to "C:\Users\09976245\source\repos\SOCS_Automation\SOCS-AutomationTest\TestResults" (default)
2019-07-24T10:39:14.1167049+10:00;VSTestExecutionThread;Info;Profile: SOCS_SmokeTest
2019-07-24T10:39:14.1326354+10:00;VSTestExecutionThread;Info;Log file path: C:\Users\09976245\source\repos\SOCS_Automation\SOCS-AutomationTest\TestResults\SOCS_SmokeTest_SOCS_SmokeTest_2019-07-24T103914.log
2019-07-24T10:39:14.1406143+10:00;Thread#13;Info;Checking license
2019-07-24T10:39:14.1436053+10:00;Thread#13;Info;License check completed
2019-07-24T10:39:14.1436053+10:00;Thread#13;Info;starting test run
2019-07-24T10:39:14.1495898+10:00;Thread#13;Info;Discovering target: Default
2019-07-24T10:39:14.1495898+10:00;Thread#13;Info;Discovering tests from assembly: C:\Users\09976245\source\repos\SOCS_Automation\SOCS-AutomationTest\SOCS_SmokeTest\bin\Debug\SOCS_SmokeTest.dll
2019-07-24T10:39:14.3979255+10:00:Appdomain Disposed
2019-07-24T10:39:14.3979255+10:00;Thread#13;Info;Discovered tests from assembly: C:\Users\09976245\source\repos\SOCS_Automation\SOCS-AutomationTest\SOCS_SmokeTest\bin\Debug\SOCS_SmokeTest.dll
2019-07-24T10:39:14.3989226+10:00:Test Suite Dump
2019-07-24T10:39:14.3999204+10:00:#0: SOCS_SmokeTest/SOCS_SmokeTest - 
2019-07-24T10:39:14.3999204+10:00:#1: Default - 
2019-07-24T10:39:14.3999204+10:00:#2: SOCS_SmokeTest - 
2019-07-24T10:39:14.3999204+10:00:#42: TestJourney03_E2E_SchoolCase_Reopen - 
2019-07-24T10:39:14.4298442+10:00:#45: 03_CaseLeader-SSS_Team_Member_Assigning_a_CaseWorker-SSS_Team_Member_to_a_Service - TestAssembly:SOCS_SmokeTest/Feature:TestJourney03_E2E_SchoolCase_Reopen/Scenario:03_CaseLeader-SSS_Team_Member_Assigning_a_CaseWorker-SSS_Team_Member_to_a_Service
2019-07-24T10:39:14.4298442+10:00:End: Test Suite Dump
2019-07-24T10:39:14.4487891+10:00:Thread#0:Scheduler: get next test for thread 0
2019-07-24T10:39:14.4497868+10:00:Thread#:Scheduler: testitem #45 from normal test queue 
2019-07-24T10:39:14.4497868+10:00:Thread#0:Scheduler: considering testitem #45 for thread 0
2019-07-24T10:39:14.4557716+10:00:Thread#0:TestItem#45:testItemMatchesCurrentTestThread:UnSpecific
2019-07-24T10:39:14.4567693+10:00:Thread#0:TestItem#45:runsOnOneOtherThreadSpecific:False
2019-07-24T10:39:14.4567693+10:00:Thread#0:TestItem#45:runsOnOneOtherThreadUnspecific:False
2019-07-24T10:39:14.4567693+10:00:Thread#0:Scheduler: using testitem #45 for thread 0
2019-07-24T10:39:14.4577661+10:00:Thread#0:Scheduler: Test #45 is scheduled for thread
2019-07-24T10:39:14.4577661+10:00:Thread#0:Scheduler: with testItemExecutionIndex 0
2019-07-24T10:39:14.4607571+10:00:Thread #0: creating new test thread executor for SOCS_SmokeTest, Version=0.0.0.0, Culture=neutral, PublicKeyToken=null (target: Default)
2019-07-24T10:39:14.4627528+10:00:Thread #0: Creating test assembly executor for execution model AppDomain
2019-07-24T10:39:14.4627528+10:00:Thread #0: Creating test assembly executor for execution model AppDomain
2019-07-24T10:39:14.4637493+10:00:using TechTalk.SpecRun.Framework.Execution.InProcess.InProcAppDomainTestAssemblyExecutorHost to execute tests
2019-07-24T10:39:14.5235905+10:00:Thread#0: Test #45/0 is started on thread #0
2019-07-24T10:39:14.7040047+10:00:Thread#0:T:-> Loading plugin C:\Users\09976245\source\repos\SOCS_Automation\SOCS-AutomationTest\SOCS_SmokeTest\bin\Debug\SpecRun.Runtime.SpecFlowPlugin.dll
2019-07-24T10:39:14.7089930+10:00:Thread#0:T:-> Using default config
2019-07-24T10:39:14.7708293+10:00:Thread#0:B:Given I navigate to SOCS application homepage
2019-07-24T10:39:19.6091225+10:00:Thread#0:T:done: SmokeSOCS_Steps.GivenINavigateToSOCSApplicationHomepage() (4.7s)
2019-07-24T10:39:19.6101153+10:00:Thread#0:B:When I login using SSSStaffMember username and password
2019-07-24T10:39:19.7357783+10:00:Thread#0:T:done: SmokeSOCS_Steps.GivenILoginUsingSSSStaffMemberUsernameAndPassword() (0.1s)
2019-07-24T10:39:19.7357783+10:00:Thread#0:B:And I press login button
2019-07-24T10:39:21.5803463+10:00:Thread#0:T:done: SmokeSOCS_Steps.WhenIPressLoginButton() (1.8s)
2019-07-24T10:39:21.5853318+10:00:Thread#0:B:Then I click Cases menu
2019-07-24T10:39:22.4486407+10:00:Thread#0:T:done: SmokeSOCS_Steps.ThenIClickCasesMenu() (0.9s)
2019-07-24T10:39:22.4526560+10:00:Thread#0:B:And I select newly created case number for the student
2019-07-24T10:39:22.4526560+10:00:Thread#0:B:  --- table step argument ---
2019-07-24T10:39:22.4526560+10:00:Thread#0:B:  | Student First Name |
2019-07-24T10:39:22.4526560+10:00:Thread#0:B:  | FSN010050155       |
2019-07-24T10:39:33.0330317+10:00:Thread#0:T:done: SmokeSOCS_Steps.ThenISelectNewlyCreatedCaseNumberForTheStudent(<table>) (10.6s)
2019-07-24T10:39:33.0340313+10:00:Thread#0:B:And I select Service
2019-07-24T10:39:33.0340313+10:00:Thread#0:B:  --- table step argument ---
2019-07-24T10:39:33.0340313+10:00:Thread#0:B:  | Service type         |
2019-07-24T10:39:33.0340313+10:00:Thread#0:B:  | Learning/Development |
2019-07-24T10:39:38.9097440+10:00:Thread#0:T:done: SmokeSOCS_Steps.ThenISelectService(<table>) (5.9s)
2019-07-24T10:39:38.9107399+10:00:Thread#0:B:And I assign a case worker
2019-07-24T10:39:38.9107399+10:00:Thread#0:B:  --- table step argument ---
2019-07-24T10:39:38.9107399+10:00:Thread#0:B:  | FirstName           | LastName | UserRole         | Specialty    |
2019-07-24T10:39:38.9107399+10:00:Thread#0:B:  | SOCS SSSStaffMember | Test     | SSS Staff Member | Psychologist |
2019-07-24T10:40:59.1217415+10:00:Thread#0:T:error: Timed out after 80 seconds
2019-07-24T10:40:59.1227389+10:00:Thread#0:B:And I close the browser successfully
2019-07-24T10:40:59.1227389+10:00:Thread#0:T:skipped because of previous errors
2019-07-24T10:40:59.1546216+10:00:Thread#0:TestItem#45:Scheduler: reschedule tests for testitem #45
2019-07-24T10:40:59.1546216+10:00:Thread#0:Scheduler: get next test for thread 0
2019-07-24T10:40:59.1546216+10:00:Thread#:Scheduler: dequeuing a rescheduled testitem: #45
2019-07-24T10:40:59.1546216+10:00:Thread#0:Scheduler: considering testitem #45 for thread 0
2019-07-24T10:40:59.1546216+10:00:Thread#0:TestItem#45:testItemMatchesCurrentTestThread:UnSpecific
2019-07-24T10:40:59.1546216+10:00:Thread#0:TestItem#45:runsOnOneOtherThreadSpecific:False
2019-07-24T10:40:59.1546216+10:00:Thread#0:TestItem#45:runsOnOneOtherThreadUnspecific:False
2019-07-24T10:40:59.1546216+10:00:Thread#0:Scheduler: using testitem #45 for thread 0
2019-07-24T10:40:59.1546216+10:00:Thread#0:Scheduler: Test #45 is scheduled for thread
2019-07-24T10:40:59.1546216+10:00:Thread#0:Scheduler: with testItemExecutionIndex 1
2019-07-24T10:40:59.1646236+10:00:Thread#0: Test #45/0 is finished on thread #0 as Failed within 104.6400394 seconds
2019-07-24T10:40:59.1655925+10:00:Thread#0: Test #45/1 is started on thread #0
2019-07-24T10:40:59.1655925+10:00:Thread#0:B:Given I navigate to SOCS application homepage
2019-07-24T10:41:04.6184315+10:00:Thread#0:T:done: SmokeSOCS_Steps.GivenINavigateToSOCSApplicationHomepage() (5.5s)
2019-07-24T10:41:04.6184315+10:00:Thread#0:B:When I login using SSSStaffMember username and password
2019-07-24T10:41:04.7666000+10:00:Thread#0:T:done: SmokeSOCS_Steps.GivenILoginUsingSSSStaffMemberUsernameAndPassword() (0.1s)
2019-07-24T10:41:04.7666000+10:00:Thread#0:B:And I press login button
2019-07-24T10:41:05.7703170+10:00:Thread#0:T:done: SmokeSOCS_Steps.WhenIPressLoginButton() (1.0s)
2019-07-24T10:41:05.7703170+10:00:Thread#0:B:Then I click Cases menu
2019-07-24T10:41:06.4406014+10:00:Thread#0:T:done: SmokeSOCS_Steps.ThenIClickCasesMenu() (0.7s)
2019-07-24T10:41:06.4406014+10:00:Thread#0:B:And I select newly created case number for the student
2019-07-24T10:41:06.4406014+10:00:Thread#0:B:  --- table step argument ---
2019-07-24T10:41:06.4406014+10:00:Thread#0:B:  | Student First Name |
2019-07-24T10:41:06.4406014+10:00:Thread#0:B:  | FSN010050155       |
