﻿2019-08-01T12:35:38.3912396+10:00;VSTestExecutionThread;Info;SpecFlow+Runner execution started
2019-08-01T12:35:38.3922349+10:00;VSTestExecutionThread;Info;SpecFlow+Runner 3.0.352 in Framework clr40 in x86 mode execution started
2019-08-01T12:35:38.3922349+10:00;VSTestExecutionThread;Info;TestAdapter Location: C:\Users\09946103\OneDrive - VIC - Department of Education and Training\Documents\SOCS\SOCS AT2\SOCS-AutomationTest\SOCS_SmokeTest\bin\Debug\TechTalk.SpecRun.VisualStudio.TestAdapter.dll
2019-08-01T12:35:38.5822347+10:00;VSTestExecutionThread;Info;SpecRun: running tests in C:\Users\09946103\OneDrive - VIC - Department of Education and Training\Documents\SOCS\SOCS AT2\SOCS-AutomationTest\SOCS_SmokeTest\bin\Debug\SOCS_SmokeTest.dll
2019-08-01T12:35:38.5822347+10:00;VSTestExecutionThread;Info;Output folder configured to "C:\Users\09946103\OneDrive - VIC - Department of Education and Training\Documents\SOCS\SOCS AT2\SOCS-AutomationTest\TestResults" (default)
2019-08-01T12:35:38.5822347+10:00;VSTestExecutionThread;Info;Profile: SOCS_SmokeTest
2019-08-01T12:35:38.6082360+10:00;VSTestExecutionThread;Info;Log file path: C:\Users\09946103\OneDrive - VIC - Department of Education and Training\Documents\SOCS\SOCS AT2\SOCS-AutomationTest\TestResults\SOCS_SmokeTest_SOCS_SmokeTest_2019-08-01T123538.log
2019-08-01T12:35:38.6192439+10:00;Thread#14;Info;Checking license
2019-08-01T12:35:38.6232352+10:00;Thread#14;Info;License check completed
2019-08-01T12:35:38.6232352+10:00;Thread#14;Info;starting test run
2019-08-01T12:35:38.6322332+10:00;Thread#14;Info;Discovering target: Default
2019-08-01T12:35:38.6322332+10:00;Thread#14;Info;Discovering tests from assembly: C:\Users\09946103\OneDrive - VIC - Department of Education and Training\Documents\SOCS\SOCS AT2\SOCS-AutomationTest\SOCS_SmokeTest\bin\Debug\SOCS_SmokeTest.dll
2019-08-01T12:35:39.0372366+10:00:Appdomain Disposed
2019-08-01T12:35:39.0372366+10:00;Thread#14;Info;Discovered tests from assembly: C:\Users\09946103\OneDrive - VIC - Department of Education and Training\Documents\SOCS\SOCS AT2\SOCS-AutomationTest\SOCS_SmokeTest\bin\Debug\SOCS_SmokeTest.dll
2019-08-01T12:35:39.0382352+10:00:Test Suite Dump
2019-08-01T12:35:39.0392373+10:00:#0: SOCS_SmokeTest/SOCS_SmokeTest - 
2019-08-01T12:35:39.0392373+10:00:#1: Default - 
2019-08-01T12:35:39.0392373+10:00:#2: SOCS_SmokeTest - 
2019-08-01T12:35:39.0392373+10:00:#77: TestJourney20_E2E_ProgramRequest_CreateToReassignCaseLeader_Support - 
2019-08-01T12:35:39.0832363+10:00:#78: Create>Submit>Assign_Case_Leader>Reassign_Case_Leader - TestAssembly:SOCS_SmokeTest/Feature:TestJourney20_E2E_ProgramRequest_CreateToReassignCaseLeader_Support/Scenario:Create%3eSubmit%3eAssign_Case_Leader%3eReassign_Case_Leader
2019-08-01T12:35:39.0832363+10:00:End: Test Suite Dump
2019-08-01T12:35:39.1152355+10:00:Thread#0:Scheduler: get next test for thread 0
2019-08-01T12:35:39.1172351+10:00:Thread#:Scheduler: testitem #78 from normal test queue 
2019-08-01T12:35:39.1182346+10:00:Thread#0:Scheduler: considering testitem #78 for thread 0
2019-08-01T12:35:39.1212370+10:00:Thread#0:TestItem#78:testItemMatchesCurrentTestThread:UnSpecific
2019-08-01T12:35:39.1212370+10:00:Thread#0:TestItem#78:runsOnOneOtherThreadSpecific:False
2019-08-01T12:35:39.1212370+10:00:Thread#0:TestItem#78:runsOnOneOtherThreadUnspecific:False
2019-08-01T12:35:39.1212370+10:00:Thread#0:Scheduler: using testitem #78 for thread 0
2019-08-01T12:35:39.1232360+10:00:Thread#0:Scheduler: Test #78 is scheduled for thread
2019-08-01T12:35:39.1242369+10:00:Thread#0:Scheduler: with testItemExecutionIndex 0
2019-08-01T12:35:39.1272415+10:00:Thread #0: creating new test thread executor for SOCS_SmokeTest, Version=0.0.0.0, Culture=neutral, PublicKeyToken=null (target: Default)
2019-08-01T12:35:39.1292338+10:00:Thread #0: Creating test assembly executor for execution model AppDomain
2019-08-01T12:35:39.1292338+10:00:Thread #0: Creating test assembly executor for execution model AppDomain
2019-08-01T12:35:39.1302354+10:00:using TechTalk.SpecRun.Framework.Execution.InProcess.InProcAppDomainTestAssemblyExecutorHost to execute tests
2019-08-01T12:35:39.2752401+10:00:Thread#0: Test #78/0 is started on thread #0
2019-08-01T12:35:39.7312372+10:00:Thread#0:T:-> Loading plugin C:\Users\09946103\OneDrive - VIC - Department of Education and Training\Documents\SOCS\SOCS AT2\SOCS-AutomationTest\SOCS_SmokeTest\bin\Debug\SpecRun.Runtime.SpecFlowPlugin.dll
2019-08-01T12:35:39.7602382+10:00:Thread#0:T:-> Using default config
2019-08-01T12:35:39.8772439+10:00:Thread#0:B:Given I navigate to SOCS application homepage
2019-08-01T12:35:45.8092689+10:00:Thread#0:T:done: SmokeSOCS_Steps.GivenINavigateToSOCSApplicationHomepage() (5.8s)
2019-08-01T12:35:45.8102743+10:00:Thread#0:B:When I login using SchoolPrincipal username and password
2019-08-01T12:35:46.0652684+10:00:Thread#0:T:done: SmokeSOCS_Steps.GivenILoginUsingSchoolPrincipalUsernameAndPassword() (0.3s)
2019-08-01T12:35:46.0662684+10:00:Thread#0:B:And I press login button
2019-08-01T12:35:46.8222787+10:00:Thread#0:T:done: SmokeSOCS_Steps.WhenIPressLoginButton() (0.8s)
2019-08-01T12:35:46.8232742+10:00:Thread#0:B:Then I click Create Program Request submenu
2019-08-01T12:35:48.2802797+10:00:Thread#0:T:done: SmokeSOCS_Steps.ThenIClickCreateProgramRequestSubmenu() (1.5s)
2019-08-01T12:35:48.2892795+10:00:Thread#0:B:And I fill in program request details - Support following critical incident
2019-08-01T12:35:48.2892795+10:00:Thread#0:B:  --- table step argument ---
2019-08-01T12:35:48.2892795+10:00:Thread#0:B:  | Primary Presenting Issue            |
2019-08-01T12:35:48.2892795+10:00:Thread#0:B:  | Support following critical incident |
2019-08-01T12:36:10.6401151+10:00:Thread#0:T:done: SmokeSOCS_Steps.ThenIFillInProgramRequestDetails_SupportFollowingCriticalIncident(<table>) (22.3s)
2019-08-01T12:36:10.6401151+10:00:Thread#0:B:And I select students for the program request
2019-08-01T12:36:10.6411149+10:00:Thread#0:B:  --- table step argument ---
2019-08-01T12:36:10.6411149+10:00:Thread#0:B:  | Student First Name |
2019-08-01T12:36:10.6411149+10:00:Thread#0:B:  | FSN010050207       |
2019-08-01T12:36:15.3402442+10:00:Thread#0:T:done: SmokeSOCS_Steps.ThenISelectStudentsForTheProgramRequest(<table>) (4.7s)
2019-08-01T12:36:15.3482440+10:00:Thread#0:B:And I will get the program case number
2019-08-01T12:36:15.3772456+10:00:Thread#0:T:done: SmokeSOCS_Steps.ThenIWillGetTheProgramCaseNumber() (0.0s)
2019-08-01T12:36:15.3782456+10:00:Thread#0:B:And I filter and select by newly created Program Request case number
