﻿2019-07-30T11:10:17.2017777+10:00;VSTestExecutionThread;Info;SpecFlow+Runner execution started
2019-07-30T11:10:17.2017777+10:00;VSTestExecutionThread;Info;SpecFlow+Runner 3.0.352 in Framework clr40 in x86 mode execution started
2019-07-30T11:10:17.2017777+10:00;VSTestExecutionThread;Info;TestAdapter Location: C:\Users\09946103\OneDrive - VIC - Department of Education and Training\Documents\SOCS\SOCS AT2\SOCS-AutomationTest\SOCS_SmokeTest\bin\Debug\TechTalk.SpecRun.VisualStudio.TestAdapter.dll
2019-07-30T11:10:17.3967838+10:00;VSTestExecutionThread;Info;SpecRun: running tests in C:\Users\09946103\OneDrive - VIC - Department of Education and Training\Documents\SOCS\SOCS AT2\SOCS-AutomationTest\SOCS_SmokeTest\bin\Debug\SOCS_SmokeTest.dll
2019-07-30T11:10:17.3967838+10:00;VSTestExecutionThread;Info;Output folder configured to "C:\Users\09946103\OneDrive - VIC - Department of Education and Training\Documents\SOCS\SOCS AT2\SOCS-AutomationTest\TestResults" (default)
2019-07-30T11:10:17.3967838+10:00;VSTestExecutionThread;Info;Profile: SOCS_SmokeTest
2019-07-30T11:10:17.4217817+10:00;VSTestExecutionThread;Info;Log file path: C:\Users\09946103\OneDrive - VIC - Department of Education and Training\Documents\SOCS\SOCS AT2\SOCS-AutomationTest\TestResults\SOCS_SmokeTest_SOCS_SmokeTest_2019-07-30T111017.log
2019-07-30T11:10:17.4327849+10:00;Thread#13;Info;Checking license
2019-07-30T11:10:17.4447807+10:00;Thread#13;Info;License check completed
2019-07-30T11:10:17.4457809+10:00;Thread#13;Info;starting test run
2019-07-30T11:10:17.4597816+10:00;Thread#13;Info;Discovering target: Default
2019-07-30T11:10:17.4617841+10:00;Thread#13;Info;Discovering tests from assembly: C:\Users\09946103\OneDrive - VIC - Department of Education and Training\Documents\SOCS\SOCS AT2\SOCS-AutomationTest\SOCS_SmokeTest\bin\Debug\SOCS_SmokeTest.dll
2019-07-30T11:10:18.0217894+10:00:Appdomain Disposed
2019-07-30T11:10:18.0217894+10:00;Thread#13;Info;Discovered tests from assembly: C:\Users\09946103\OneDrive - VIC - Department of Education and Training\Documents\SOCS\SOCS AT2\SOCS-AutomationTest\SOCS_SmokeTest\bin\Debug\SOCS_SmokeTest.dll
2019-07-30T11:10:18.0227875+10:00:Test Suite Dump
2019-07-30T11:10:18.0247908+10:00:#0: SOCS_SmokeTest/SOCS_SmokeTest - 
2019-07-30T11:10:18.0247908+10:00:#1: Default - 
2019-07-30T11:10:18.0247908+10:00:#2: SOCS_SmokeTest - 
2019-07-30T11:10:18.0247908+10:00:#62: TestJourney13_E2E_ProgramRequest_CreateSubmitComplete_Communication - 
2019-07-30T11:10:18.0767886+10:00:#63: Create>Submit>AddCaseNote>RequestNewSpecialist - TestAssembly:SOCS_SmokeTest/Feature:TestJourney13_E2E_ProgramRequest_CreateSubmitComplete_Communication/Scenario:Create%3eSubmit%3eAddCaseNote%3eRequestNewSpecialist
2019-07-30T11:10:18.0767886+10:00:End: Test Suite Dump
2019-07-30T11:10:18.1067896+10:00:Thread#0:Scheduler: get next test for thread 0
2019-07-30T11:10:18.1097883+10:00:Thread#:Scheduler: testitem #63 from normal test queue 
2019-07-30T11:10:18.1097883+10:00:Thread#0:Scheduler: considering testitem #63 for thread 0
2019-07-30T11:10:18.1167872+10:00:Thread#0:TestItem#63:testItemMatchesCurrentTestThread:UnSpecific
2019-07-30T11:10:18.1167872+10:00:Thread#0:TestItem#63:runsOnOneOtherThreadSpecific:False
2019-07-30T11:10:18.1167872+10:00:Thread#0:TestItem#63:runsOnOneOtherThreadUnspecific:False
2019-07-30T11:10:18.1167872+10:00:Thread#0:Scheduler: using testitem #63 for thread 0
2019-07-30T11:10:18.1187907+10:00:Thread#0:Scheduler: Test #63 is scheduled for thread
2019-07-30T11:10:18.1217915+10:00:Thread#0:Scheduler: with testItemExecutionIndex 0
2019-07-30T11:10:18.1237896+10:00:Thread #0: creating new test thread executor for SOCS_SmokeTest, Version=0.0.0.0, Culture=neutral, PublicKeyToken=null (target: Default)
2019-07-30T11:10:18.1257884+10:00:Thread #0: Creating test assembly executor for execution model AppDomain
2019-07-30T11:10:18.1257884+10:00:Thread #0: Creating test assembly executor for execution model AppDomain
2019-07-30T11:10:18.1267880+10:00:using TechTalk.SpecRun.Framework.Execution.InProcess.InProcAppDomainTestAssemblyExecutorHost to execute tests
2019-07-30T11:10:18.2257912+10:00:Thread#0: Test #63/0 is started on thread #0
2019-07-30T11:10:18.5847937+10:00:Thread#0:T:-> Loading plugin C:\Users\09946103\OneDrive - VIC - Department of Education and Training\Documents\SOCS\SOCS AT2\SOCS-AutomationTest\SOCS_SmokeTest\bin\Debug\SpecRun.Runtime.SpecFlowPlugin.dll
2019-07-30T11:10:18.5927924+10:00:Thread#0:T:-> Using default config
2019-07-30T11:10:18.7367980+10:00:Thread#0:B:Given I navigate to SOCS application homepage
2019-07-30T11:10:23.6480764+10:00:Thread#0:T:done: SmokeSOCS_Steps.GivenINavigateToSOCSApplicationHomepage() (4.8s)
2019-07-30T11:10:23.6490726+10:00:Thread#0:B:When I login using SchoolPrincipal username and password
2019-07-30T11:10:23.8480782+10:00:Thread#0:T:done: SmokeSOCS_Steps.GivenILoginUsingSchoolPrincipalUsernameAndPassword() (0.2s)
2019-07-30T11:10:23.8480782+10:00:Thread#0:B:And I press login button
2019-07-30T11:10:24.6970831+10:00:Thread#0:T:done: SmokeSOCS_Steps.WhenIPressLoginButton() (0.8s)
2019-07-30T11:10:24.6980893+10:00:Thread#0:B:Then I click Create Program Request submenu
2019-07-30T11:10:25.9794187+10:00:Thread#0:T:done: SmokeSOCS_Steps.ThenIClickCreateProgramRequestSubmenu() (1.3s)
2019-07-30T11:10:25.9874229+10:00:Thread#0:B:And I fill in program request details - Communication or Speech as Primary Presenting Issue
2019-07-30T11:10:25.9874229+10:00:Thread#0:B:  --- table step argument ---
2019-07-30T11:10:25.9874229+10:00:Thread#0:B:  | Primary Presenting Issue |
2019-07-30T11:10:25.9884217+10:00:Thread#0:B:  | Communication or Speech  |
2019-07-30T11:10:31.0379659+10:00:Thread#0:T:done: SmokeSOCS_Steps.ThenIFillInProgramRequestDetails_CommunicationOrSpeechAsPrimaryPresentingIssue(<table>) (5.0s)
2019-07-30T11:10:31.0379659+10:00:Thread#0:B:And I select students for the program request
2019-07-30T11:10:31.0379659+10:00:Thread#0:B:  --- table step argument ---
2019-07-30T11:10:31.0379659+10:00:Thread#0:B:  | Student First Name |
2019-07-30T11:10:31.0379659+10:00:Thread#0:B:  | FSN010050159       |
2019-07-30T11:10:36.0230173+10:00:Thread#0:T:done: SmokeSOCS_Steps.ThenISelectStudentsForTheProgramRequest(<table>) (5.0s)
2019-07-30T11:10:36.0300172+10:00:Thread#0:B:And I will get the program case number
2019-07-30T11:10:36.0630140+10:00:Thread#0:T:done: SmokeSOCS_Steps.ThenIWillGetTheProgramCaseNumber() (0.0s)
2019-07-30T11:10:36.0640185+10:00:Thread#0:B:Then I click Cases menu
2019-07-30T11:10:36.5030221+10:00:Thread#0:T:done: SmokeSOCS_Steps.ThenIClickCasesMenu() (0.4s)
2019-07-30T11:10:36.5040208+10:00:Thread#0:B:And I filter and select by newly created Program Request case number
2019-07-30T11:10:39.6679975+10:00:Thread#0:T:done: SmokeSOCS_Steps.ThenIFilterAndSelectByNewlyCreatedProgramRequestCaseNumber() (3.2s)
2019-07-30T11:10:39.6690121+10:00:Thread#0:B:Then I upload supporting documents for Program Request
2019-07-30T11:10:47.0409026+10:00:Thread#0:T:done: SmokeSOCS_Steps.ThenIUploadSupportingDocumentsForProgramRequest() (7.4s)
2019-07-30T11:10:47.0419021+10:00:Thread#0:B:And I save the changes in Program Request
2019-07-30T11:10:51.6947829+10:00:Thread#0:T:done: SmokeSOCS_Steps.ThenISaveTheChangesInProgramRequest() (4.7s)
2019-07-30T11:10:51.6957418+10:00:Thread#0:B:Then I click Cases menu
2019-07-30T11:10:52.1797508+10:00:Thread#0:T:done: SmokeSOCS_Steps.ThenIClickCasesMenu() (0.5s)
2019-07-30T11:10:52.1847477+10:00:Thread#0:B:And I filter and select by newly created Program Request case number
2019-07-30T11:10:55.4921356+10:00:Thread#0:T:done: SmokeSOCS_Steps.ThenIFilterAndSelectByNewlyCreatedProgramRequestCaseNumber() (3.3s)
2019-07-30T11:10:55.4931358+10:00:Thread#0:B:And I add/save case note for Program Request
2019-07-30T11:10:55.4941354+10:00:Thread#0:B:  --- table step argument ---
2019-07-30T11:10:55.4951325+10:00:Thread#0:B:  | DurationHours | DurationMinutes | School Action                      |
2019-07-30T11:10:55.4951325+10:00:Thread#0:B:  | 1             | 00              | Complete a school based assessment |
2019-07-30T11:11:15.1396075+10:00:Thread#0:T:error:   No Student Case Note created
2019-07-30T11:11:15.1396075+10:00:Thread#0:T:  Expected: 1
2019-07-30T11:11:15.1406038+10:00:Thread#0:T:  But was:  0
2019-07-30T11:11:15.1416031+10:00:Thread#0:B:And I save the changes in Program Request
2019-07-30T11:11:15.1416031+10:00:Thread#0:T:skipped because of previous errors
2019-07-30T11:11:15.1426030+10:00:Thread#0:B:And I attach consent form for Program Request
2019-07-30T11:11:15.1426030+10:00:Thread#0:T:skipped because of previous errors
2019-07-30T11:11:15.1436033+10:00:Thread#0:B:And I save and submit existing Program Request
2019-07-30T11:11:15.1456023+10:00:Thread#0:T:skipped because of previous errors
2019-07-30T11:11:15.1456023+10:00:Thread#0:B:And I logout of SOCS application
2019-07-30T11:11:15.1466033+10:00:Thread#0:T:skipped because of previous errors
2019-07-30T11:11:15.1466033+10:00:Thread#0:B:And I close the browser successfully
2019-07-30T11:11:15.1476024+10:00:Thread#0:T:skipped because of previous errors
2019-07-30T11:11:15.1476024+10:00:Thread#0:B:Given I navigate to SOCS application homepage
2019-07-30T11:11:15.1486026+10:00:Thread#0:T:skipped because of previous errors
2019-07-30T11:11:15.1486026+10:00:Thread#0:B:When I login using SSSTeamLeader username and password
2019-07-30T11:11:15.1496029+10:00:Thread#0:T:skipped because of previous errors
2019-07-30T11:11:15.1496029+10:00:Thread#0:B:And I press login button
2019-07-30T11:11:15.1506029+10:00:Thread#0:T:skipped because of previous errors
2019-07-30T11:11:15.1506029+10:00:Thread#0:B:Then I click Cases menu
2019-07-30T11:11:15.1516027+10:00:Thread#0:T:skipped because of previous errors
2019-07-30T11:11:15.1516027+10:00:Thread#0:B:And I filter and select by newly created case number
2019-07-30T11:11:15.1526031+10:00:Thread#0:T:skipped because of previous errors
2019-07-30T11:11:15.1556004+10:00:Thread#0:B:And I made some action
2019-07-30T11:11:15.1556004+10:00:Thread#0:B:  --- table step argument ---
2019-07-30T11:11:15.1565989+10:00:Thread#0:B:  | Priority   | Action               | Recommendations                                 |
2019-07-30T11:11:15.1565989+10:00:Thread#0:B:  | Priority 1 | Assign a Case Leader | The school agrees on an internal school program |
2019-07-30T11:11:15.1575986+10:00:Thread#0:T:skipped because of previous errors
2019-07-30T11:11:15.1585984+10:00:Thread#0:B:And I assign a case leader
2019-07-30T11:11:15.1585984+10:00:Thread#0:B:  --- table step argument ---
2019-07-30T11:11:15.1585984+10:00:Thread#0:B:  | FirstName           | LastName | UserRole         | Specialty    |
2019-07-30T11:11:15.1595977+10:00:Thread#0:B:  | SOCS SSSStaffMember | Test     | SSS Staff Member | Psychologist |
2019-07-30T11:11:15.1595977+10:00:Thread#0:T:skipped because of previous errors
2019-07-30T11:11:15.1605990+10:00:Thread#0:B:And I logout of SOCS application
2019-07-30T11:11:15.1615985+10:00:Thread#0:T:skipped because of previous errors
2019-07-30T11:11:15.1615985+10:00:Thread#0:B:And I close the browser successfully
2019-07-30T11:11:15.1625982+10:00:Thread#0:T:skipped because of previous errors
2019-07-30T11:11:15.1625982+10:00:Thread#0:B:Given I navigate to SOCS application homepage
2019-07-30T11:11:15.1635989+10:00:Thread#0:T:skipped because of previous errors
2019-07-30T11:11:15.1646027+10:00:Thread#0:B:When I login using SSSStaffMember username and password
2019-07-30T11:11:15.1646027+10:00:Thread#0:T:skipped because of previous errors
2019-07-30T11:11:15.1656027+10:00:Thread#0:B:And I press login button
2019-07-30T11:11:15.1656027+10:00:Thread#0:T:skipped because of previous errors
2019-07-30T11:11:15.1666018+10:00:Thread#0:B:Then I click Cases menu
2019-07-30T11:11:15.1676012+10:00:Thread#0:T:skipped because of previous errors
2019-07-30T11:11:15.1676012+10:00:Thread#0:B:And I filter and select by newly created case number
2019-07-30T11:11:15.1686024+10:00:Thread#0:T:skipped because of previous errors
2019-07-30T11:11:15.1696032+10:00:Thread#0:B:And I select Service
2019-07-30T11:11:15.1696032+10:00:Thread#0:B:  --- table step argument ---
2019-07-30T11:11:15.1706002+10:00:Thread#0:B:  | Service type         |
2019-07-30T11:11:15.1706002+10:00:Thread#0:B:  | Learning/Development |
2019-07-30T11:11:15.1716012+10:00:Thread#0:T:skipped because of previous errors
2019-07-30T11:11:15.1726007+10:00:Thread#0:B:And I assign a case worker
2019-07-30T11:11:15.1726007+10:00:Thread#0:B:  --- table step argument ---
2019-07-30T11:11:15.1736032+10:00:Thread#0:B:  | FirstName           | LastName | UserRole         | Specialty    |
2019-07-30T11:11:15.1736032+10:00:Thread#0:B:  | SOCS SSSStaffMember | Test     | SSS Staff Member | Psychologist |
2019-07-30T11:11:15.1746050+10:00:Thread#0:T:skipped because of previous errors
2019-07-30T11:11:15.1746050+10:00:Thread#0:B:And I logout of SOCS application
2019-07-30T11:11:15.1766420+10:00:Thread#0:T:skipped because of previous errors
2019-07-30T11:11:15.1776026+10:00:Thread#0:B:And I close the browser successfully
2019-07-30T11:11:15.1776026+10:00:Thread#0:T:skipped because of previous errors
2019-07-30T11:11:15.1786025+10:00:Thread#0:B:Given I navigate to SOCS application homepage
2019-07-30T11:11:15.1786025+10:00:Thread#0:T:skipped because of previous errors
2019-07-30T11:11:15.1796025+10:00:Thread#0:B:When I login using SSSStaffMember username and password
2019-07-30T11:11:15.1805992+10:00:Thread#0:T:skipped because of previous errors
2019-07-30T11:11:15.1805992+10:00:Thread#0:B:And I press login button
2019-07-30T11:11:15.1815987+10:00:Thread#0:T:skipped because of previous errors
2019-07-30T11:11:15.1815987+10:00:Thread#0:B:Then I click Cases menu
2019-07-30T11:11:15.1825987+10:00:Thread#0:T:skipped because of previous errors
2019-07-30T11:11:15.1825987+10:00:Thread#0:B:And I filter and select by newly created case number
2019-07-30T11:11:15.1836029+10:00:Thread#0:T:skipped because of previous errors
2019-07-30T11:11:15.1846022+10:00:Thread#0:B:And I select Service
2019-07-30T11:11:15.1856022+10:00:Thread#0:B:  --- table step argument ---
2019-07-30T11:11:15.1856022+10:00:Thread#0:B:  | Service type         |
2019-07-30T11:11:15.1856022+10:00:Thread#0:B:  | Learning/Development |
2019-07-30T11:11:15.1866022+10:00:Thread#0:T:skipped because of previous errors
2019-07-30T11:11:15.1876022+10:00:Thread#0:B:And I close the service
2019-07-30T11:11:15.1886073+10:00:Thread#0:B:  --- table step argument ---
2019-07-30T11:11:15.1886073+10:00:Thread#0:B:  | InterventionOutcomes | InterventionAims         |
2019-07-30T11:11:15.1896034+10:00:Thread#0:B:  | Issue is resolved    | Been completely achieved |
2019-07-30T11:11:15.1906017+10:00:Thread#0:T:skipped because of previous errors
2019-07-30T11:11:15.1906017+10:00:Thread#0:B:And I close the case
2019-07-30T11:11:15.1916026+10:00:Thread#0:T:skipped because of previous errors
2019-07-30T11:11:15.1926415+10:00:Thread#0:B:And I logout of SOCS application
2019-07-30T11:11:15.1936033+10:00:Thread#0:T:skipped because of previous errors
2019-07-30T11:11:15.1936033+10:00:Thread#0:B:And I close the browser successfully
2019-07-30T11:11:15.1946013+10:00:Thread#0:T:skipped because of previous errors
2019-07-30T11:11:15.2025991+10:00:Thread#0:TestItem#63:Scheduler: reschedule tests for testitem #63
2019-07-30T11:11:15.2025991+10:00:Thread#0:Scheduler: get next test for thread 0
2019-07-30T11:11:15.2025991+10:00:Thread#:Scheduler: dequeuing a rescheduled testitem: #63
2019-07-30T11:11:15.2025991+10:00:Thread#0:Scheduler: considering testitem #63 for thread 0
2019-07-30T11:11:15.2025991+10:00:Thread#0:TestItem#63:testItemMatchesCurrentTestThread:UnSpecific
2019-07-30T11:11:15.2025991+10:00:Thread#0:TestItem#63:runsOnOneOtherThreadSpecific:False
2019-07-30T11:11:15.2025991+10:00:Thread#0:TestItem#63:runsOnOneOtherThreadUnspecific:False
2019-07-30T11:11:15.2035995+10:00:Thread#0:Scheduler: using testitem #63 for thread 0
2019-07-30T11:11:15.2035995+10:00:Thread#0:Scheduler: Test #63 is scheduled for thread
2019-07-30T11:11:15.2035995+10:00:Thread#0:Scheduler: with testItemExecutionIndex 1
2019-07-30T11:11:15.2146036+10:00:Thread#0: Test #63/0 is finished on thread #0 as Failed within 56.9868147 seconds
2019-07-30T11:11:15.2166042+10:00:Thread#0: Test #63/1 is started on thread #0
2019-07-30T11:11:15.2176003+10:00:Thread#0:B:Given I navigate to SOCS application homepage
2019-07-30T11:11:19.6269335+10:00:Thread#0:T:done: SmokeSOCS_Steps.GivenINavigateToSOCSApplicationHomepage() (4.4s)
2019-07-30T11:11:19.6279318+10:00:Thread#0:B:When I login using SchoolPrincipal username and password
2019-07-30T11:11:19.7869345+10:00:Thread#0:T:done: SmokeSOCS_Steps.GivenILoginUsingSchoolPrincipalUsernameAndPassword() (0.2s)
2019-07-30T11:11:19.7879393+10:00:Thread#0:B:And I press login button
2019-07-30T11:11:20.5296095+10:00:Thread#0:T:done: SmokeSOCS_Steps.WhenIPressLoginButton() (0.7s)
2019-07-30T11:11:20.5306028+10:00:Thread#0:B:Then I click Create Program Request submenu
2019-07-30T11:11:21.8296040+10:00:Thread#0:T:done: SmokeSOCS_Steps.ThenIClickCreateProgramRequestSubmenu() (1.3s)
2019-07-30T11:11:21.8306066+10:00:Thread#0:B:And I fill in program request details - Communication or Speech as Primary Presenting Issue
2019-07-30T11:11:21.8306066+10:00:Thread#0:B:  --- table step argument ---
2019-07-30T11:11:21.8316055+10:00:Thread#0:B:  | Primary Presenting Issue |
2019-07-30T11:11:21.8326044+10:00:Thread#0:B:  | Communication or Speech  |
2019-07-30T11:11:26.6537272+10:00:Thread#0:T:done: SmokeSOCS_Steps.ThenIFillInProgramRequestDetails_CommunicationOrSpeechAsPrimaryPresentingIssue(<table>) (4.8s)
2019-07-30T11:11:26.6547408+10:00:Thread#0:B:And I select students for the program request
2019-07-30T11:11:26.6577296+10:00:Thread#0:B:  --- table step argument ---
2019-07-30T11:11:26.6587264+10:00:Thread#0:B:  | Student First Name |
2019-07-30T11:11:26.6587264+10:00:Thread#0:B:  | FSN010050159       |
2019-07-30T11:11:31.8047820+10:00:Thread#0:T:done: SmokeSOCS_Steps.ThenISelectStudentsForTheProgramRequest(<table>) (5.1s)
2019-07-30T11:11:31.8057787+10:00:Thread#0:B:And I will get the program case number
2019-07-30T11:11:31.8317793+10:00:Thread#0:T:done: SmokeSOCS_Steps.ThenIWillGetTheProgramCaseNumber() (0.0s)
2019-07-30T11:11:31.8327805+10:00:Thread#0:B:Then I click Cases menu
2019-07-30T11:11:32.3277844+10:00:Thread#0:T:done: SmokeSOCS_Steps.ThenIClickCasesMenu() (0.5s)
2019-07-30T11:11:32.3287894+10:00:Thread#0:B:And I filter and select by newly created Program Request case number
2019-07-30T11:11:36.3084768+10:00:Thread#0:T:done: SmokeSOCS_Steps.ThenIFilterAndSelectByNewlyCreatedProgramRequestCaseNumber() (4.0s)
2019-07-30T11:11:36.3094694+10:00:Thread#0:B:Then I upload supporting documents for Program Request
2019-07-30T11:11:43.6417670+10:00:Thread#0:T:done: SmokeSOCS_Steps.ThenIUploadSupportingDocumentsForProgramRequest() (7.3s)
2019-07-30T11:11:43.6427715+10:00:Thread#0:B:And I save the changes in Program Request
2019-07-30T11:11:48.3880747+10:00:Thread#0:T:done: SmokeSOCS_Steps.ThenISaveTheChangesInProgramRequest() (4.7s)
2019-07-30T11:11:48.3890348+10:00:Thread#0:B:Then I click Cases menu
2019-07-30T11:11:48.8360455+10:00:Thread#0:T:done: SmokeSOCS_Steps.ThenIClickCasesMenu() (0.4s)
2019-07-30T11:11:48.8370398+10:00:Thread#0:B:And I filter and select by newly created Program Request case number
2019-07-30T11:11:52.1983758+10:00:Thread#0:T:done: SmokeSOCS_Steps.ThenIFilterAndSelectByNewlyCreatedProgramRequestCaseNumber() (3.4s)
2019-07-30T11:11:52.1993767+10:00:Thread#0:B:And I add/save case note for Program Request
2019-07-30T11:11:52.2003761+10:00:Thread#0:B:  --- table step argument ---
2019-07-30T11:11:52.2013764+10:00:Thread#0:B:  | DurationHours | DurationMinutes | School Action                      |
2019-07-30T11:11:52.2023761+10:00:Thread#0:B:  | 1             | 00              | Complete a school based assessment |
2019-07-30T11:11:52.2923774+10:00:Thread#0:T:error: element click intercepted: Element <input type="button" name="cmdAddCaseNote" id="cmdAddCaseNote" value="Add Case Note" class="button" onclick="CollapsiblePanelToggle('scn')"> is not clickable at point (723, 915). Other element would receive the click: <form action="/StudentSupportServices/Case.aspx/UpdateCaseDetails" enctype="multipart/form-data" id="caseDetailsForm" method="post">...</form>
2019-07-30T11:11:52.2933768+10:00:Thread#0:T:  (Session info: chrome=75.0.3770.100)
2019-07-30T11:11:52.2943773+10:00:Thread#0:B:And I save the changes in Program Request
2019-07-30T11:11:52.2953761+10:00:Thread#0:T:skipped because of previous errors
2019-07-30T11:11:52.2963774+10:00:Thread#0:B:And I attach consent form for Program Request
2019-07-30T11:11:52.2983781+10:00:Thread#0:T:skipped because of previous errors
2019-07-30T11:11:52.2993762+10:00:Thread#0:B:And I save and submit existing Program Request
2019-07-30T11:11:52.3003759+10:00:Thread#0:T:skipped because of previous errors
2019-07-30T11:11:52.3003759+10:00:Thread#0:B:And I logout of SOCS application
2019-07-30T11:11:52.3013752+10:00:Thread#0:T:skipped because of previous errors
2019-07-30T11:11:52.3013752+10:00:Thread#0:B:And I close the browser successfully
2019-07-30T11:11:52.3023761+10:00:Thread#0:T:skipped because of previous errors
2019-07-30T11:11:52.3023761+10:00:Thread#0:B:Given I navigate to SOCS application homepage
2019-07-30T11:11:52.3033753+10:00:Thread#0:T:skipped because of previous errors
2019-07-30T11:11:52.3033753+10:00:Thread#0:B:When I login using SSSTeamLeader username and password
2019-07-30T11:11:52.3043741+10:00:Thread#0:T:skipped because of previous errors
2019-07-30T11:11:52.3053795+10:00:Thread#0:B:And I press login button
2019-07-30T11:11:52.3063794+10:00:Thread#0:T:skipped because of previous errors
2019-07-30T11:11:52.3083767+10:00:Thread#0:B:Then I click Cases menu
2019-07-30T11:11:52.3093778+10:00:Thread#0:T:skipped because of previous errors
2019-07-30T11:11:52.3123779+10:00:Thread#0:B:And I filter and select by newly created case number
2019-07-30T11:11:52.3133797+10:00:Thread#0:T:skipped because of previous errors
2019-07-30T11:11:52.3143776+10:00:Thread#0:B:And I made some action
2019-07-30T11:11:52.3153765+10:00:Thread#0:B:  --- table step argument ---
2019-07-30T11:11:52.3163780+10:00:Thread#0:B:  | Priority   | Action               | Recommendations                                 |
2019-07-30T11:11:52.3173837+10:00:Thread#0:B:  | Priority 1 | Assign a Case Leader | The school agrees on an internal school program |
2019-07-30T11:11:52.3173837+10:00:Thread#0:T:skipped because of previous errors
2019-07-30T11:11:52.3183784+10:00:Thread#0:B:And I assign a case leader
2019-07-30T11:11:52.3193774+10:00:Thread#0:B:  --- table step argument ---
2019-07-30T11:11:52.3193774+10:00:Thread#0:B:  | FirstName           | LastName | UserRole         | Specialty    |
2019-07-30T11:11:52.3203769+10:00:Thread#0:B:  | SOCS SSSStaffMember | Test     | SSS Staff Member | Psychologist |
2019-07-30T11:11:52.3213776+10:00:Thread#0:T:skipped because of previous errors
2019-07-30T11:11:52.3223938+10:00:Thread#0:B:And I logout of SOCS application
2019-07-30T11:11:52.3233831+10:00:Thread#0:T:skipped because of previous errors
2019-07-30T11:11:52.3243760+10:00:Thread#0:B:And I close the browser successfully
2019-07-30T11:11:52.3253775+10:00:Thread#0:T:skipped because of previous errors
2019-07-30T11:11:52.3263775+10:00:Thread#0:B:Given I navigate to SOCS application homepage
2019-07-30T11:11:52.3273769+10:00:Thread#0:T:skipped because of previous errors
2019-07-30T11:11:52.3293856+10:00:Thread#0:B:When I login using SSSStaffMember username and password
2019-07-30T11:11:52.3303806+10:00:Thread#0:T:skipped because of previous errors
2019-07-30T11:11:52.3303806+10:00:Thread#0:B:And I press login button
2019-07-30T11:11:52.3313773+10:00:Thread#0:T:skipped because of previous errors
2019-07-30T11:11:52.3323801+10:00:Thread#0:B:Then I click Cases menu
2019-07-30T11:11:52.3333770+10:00:Thread#0:T:skipped because of previous errors
2019-07-30T11:11:52.3343771+10:00:Thread#0:B:And I filter and select by newly created case number
2019-07-30T11:11:52.3353775+10:00:Thread#0:T:skipped because of previous errors
2019-07-30T11:11:52.3353775+10:00:Thread#0:B:And I select Service
2019-07-30T11:11:52.3363810+10:00:Thread#0:B:  --- table step argument ---
2019-07-30T11:11:52.3393772+10:00:Thread#0:B:  | Service type         |
2019-07-30T11:11:52.3403836+10:00:Thread#0:B:  | Learning/Development |
2019-07-30T11:11:52.3413831+10:00:Thread#0:T:skipped because of previous errors
2019-07-30T11:11:52.3423798+10:00:Thread#0:B:And I assign a case worker
2019-07-30T11:11:52.3423798+10:00:Thread#0:B:  --- table step argument ---
2019-07-30T11:11:52.3433774+10:00:Thread#0:B:  | FirstName           | LastName | UserRole         | Specialty    |
2019-07-30T11:11:52.3443780+10:00:Thread#0:B:  | SOCS SSSStaffMember | Test     | SSS Staff Member | Psychologist |
2019-07-30T11:11:52.3453792+10:00:Thread#0:T:skipped because of previous errors
2019-07-30T11:11:52.3473802+10:00:Thread#0:B:And I logout of SOCS application
2019-07-30T11:11:52.3483799+10:00:Thread#0:T:skipped because of previous errors
2019-07-30T11:11:52.3493779+10:00:Thread#0:B:And I close the browser successfully
2019-07-30T11:11:52.3503780+10:00:Thread#0:T:skipped because of previous errors
2019-07-30T11:11:52.3513773+10:00:Thread#0:B:Given I navigate to SOCS application homepage
2019-07-30T11:11:52.3523766+10:00:Thread#0:T:skipped because of previous errors
2019-07-30T11:11:52.3523766+10:00:Thread#0:B:When I login using SSSStaffMember username and password
2019-07-30T11:11:52.3543820+10:00:Thread#0:T:skipped because of previous errors
2019-07-30T11:11:52.3553874+10:00:Thread#0:B:And I press login button
2019-07-30T11:11:52.3563777+10:00:Thread#0:T:skipped because of previous errors
2019-07-30T11:11:52.3563777+10:00:Thread#0:B:Then I click Cases menu
2019-07-30T11:11:52.3573769+10:00:Thread#0:T:skipped because of previous errors
2019-07-30T11:11:52.3593769+10:00:Thread#0:B:And I filter and select by newly created case number
2019-07-30T11:11:52.3603764+10:00:Thread#0:T:skipped because of previous errors
2019-07-30T11:11:52.3603764+10:00:Thread#0:B:And I select Service
2019-07-30T11:11:52.3613773+10:00:Thread#0:B:  --- table step argument ---
2019-07-30T11:11:52.3623781+10:00:Thread#0:B:  | Service type         |
2019-07-30T11:11:52.3633805+10:00:Thread#0:B:  | Learning/Development |
2019-07-30T11:11:52.3643778+10:00:Thread#0:T:skipped because of previous errors
2019-07-30T11:11:52.3653768+10:00:Thread#0:B:And I close the service
2019-07-30T11:11:52.3663773+10:00:Thread#0:B:  --- table step argument ---
2019-07-30T11:11:52.3673859+10:00:Thread#0:B:  | InterventionOutcomes | InterventionAims         |
2019-07-30T11:11:52.3673859+10:00:Thread#0:B:  | Issue is resolved    | Been completely achieved |
2019-07-30T11:11:52.3683776+10:00:Thread#0:T:skipped because of previous errors
2019-07-30T11:11:52.3703764+10:00:Thread#0:B:And I close the case
2019-07-30T11:11:52.3703764+10:00:Thread#0:T:skipped because of previous errors
2019-07-30T11:11:52.3723936+10:00:Thread#0:B:And I logout of SOCS application
2019-07-30T11:11:52.3733788+10:00:Thread#0:T:skipped because of previous errors
2019-07-30T11:11:52.3753784+10:00:Thread#0:B:And I close the browser successfully
2019-07-30T11:11:52.3763799+10:00:Thread#0:T:skipped because of previous errors
2019-07-30T11:11:52.3793792+10:00:Thread#0:Scheduler: get next test for thread 0
2019-07-30T11:11:52.3793792+10:00:Thread#:Scheduler: dequeuing a rescheduled testitem: #63
2019-07-30T11:11:52.3793792+10:00:Thread#0:Scheduler: considering testitem #63 for thread 0
2019-07-30T11:11:52.3793792+10:00:Thread#0:TestItem#63:testItemMatchesCurrentTestThread:UnSpecific
2019-07-30T11:11:52.3793792+10:00:Thread#0:TestItem#63:runsOnOneOtherThreadSpecific:False
2019-07-30T11:11:52.3793792+10:00:Thread#0:TestItem#63:runsOnOneOtherThreadUnspecific:False
2019-07-30T11:11:52.3793792+10:00:Thread#0:Scheduler: using testitem #63 for thread 0
2019-07-30T11:11:52.3793792+10:00:Thread#0:Scheduler: Test #63 is scheduled for thread
2019-07-30T11:11:52.3793792+10:00:Thread#0:Scheduler: with testItemExecutionIndex 2
2019-07-30T11:11:52.3823736+10:00:Thread#0: Test #63/1 is finished on thread #0 as Failed within 37.1657694 seconds
2019-07-30T11:11:52.3833770+10:00:Thread#0: Test #63/2 is started on thread #0
2019-07-30T11:11:52.3853787+10:00:Thread#0:B:Given I navigate to SOCS application homepage
2019-07-30T11:11:56.9104117+10:00:Thread#0:T:done: SmokeSOCS_Steps.GivenINavigateToSOCSApplicationHomepage() (4.5s)
2019-07-30T11:11:56.9114085+10:00:Thread#0:B:When I login using SchoolPrincipal username and password
2019-07-30T11:11:57.0864062+10:00:Thread#0:T:done: SmokeSOCS_Steps.GivenILoginUsingSchoolPrincipalUsernameAndPassword() (0.2s)
2019-07-30T11:11:57.0884066+10:00:Thread#0:B:And I press login button
2019-07-30T11:11:57.8464132+10:00:Thread#0:T:done: SmokeSOCS_Steps.WhenIPressLoginButton() (0.8s)
2019-07-30T11:11:57.8474098+10:00:Thread#0:B:Then I click Create Program Request submenu
2019-07-30T11:11:59.0916234+10:00:Thread#0:T:done: SmokeSOCS_Steps.ThenIClickCreateProgramRequestSubmenu() (1.2s)
2019-07-30T11:11:59.0926241+10:00:Thread#0:B:And I fill in program request details - Communication or Speech as Primary Presenting Issue
2019-07-30T11:11:59.0956242+10:00:Thread#0:B:  --- table step argument ---
2019-07-30T11:11:59.0966222+10:00:Thread#0:B:  | Primary Presenting Issue |
2019-07-30T11:11:59.0976221+10:00:Thread#0:B:  | Communication or Speech  |
2019-07-30T11:12:03.9701726+10:00:Thread#0:T:done: SmokeSOCS_Steps.ThenIFillInProgramRequestDetails_CommunicationOrSpeechAsPrimaryPresentingIssue(<table>) (4.9s)
2019-07-30T11:12:03.9711741+10:00:Thread#0:B:And I select students for the program request
2019-07-30T11:12:03.9721877+10:00:Thread#0:B:  --- table step argument ---
2019-07-30T11:12:03.9741722+10:00:Thread#0:B:  | Student First Name |
2019-07-30T11:12:03.9751699+10:00:Thread#0:B:  | FSN010050159       |
2019-07-30T11:12:08.3871909+10:00:Thread#0:T:done: SmokeSOCS_Steps.ThenISelectStudentsForTheProgramRequest(<table>) (4.4s)
2019-07-30T11:12:08.3882038+10:00:Thread#0:B:And I will get the program case number
2019-07-30T11:12:08.4161889+10:00:Thread#0:T:done: SmokeSOCS_Steps.ThenIWillGetTheProgramCaseNumber() (0.0s)
2019-07-30T11:12:08.4161889+10:00:Thread#0:B:Then I click Cases menu
2019-07-30T11:12:08.9481935+10:00:Thread#0:T:done: SmokeSOCS_Steps.ThenIClickCasesMenu() (0.5s)
2019-07-30T11:12:08.9491959+10:00:Thread#0:B:And I filter and select by newly created Program Request case number
2019-07-30T11:12:12.0858985+10:00:Thread#0:T:done: SmokeSOCS_Steps.ThenIFilterAndSelectByNewlyCreatedProgramRequestCaseNumber() (3.1s)
2019-07-30T11:12:12.0868992+10:00:Thread#0:B:Then I upload supporting documents for Program Request
2019-07-30T11:12:19.3585466+10:00:Thread#0:T:done: SmokeSOCS_Steps.ThenIUploadSupportingDocumentsForProgramRequest() (7.3s)
2019-07-30T11:12:19.3595463+10:00:Thread#0:B:And I save the changes in Program Request
2019-07-30T11:12:23.7088204+10:00:Thread#0:T:done: SmokeSOCS_Steps.ThenISaveTheChangesInProgramRequest() (4.3s)
2019-07-30T11:12:23.7098217+10:00:Thread#0:B:Then I click Cases menu
2019-07-30T11:12:24.2548289+10:00:Thread#0:T:done: SmokeSOCS_Steps.ThenIClickCasesMenu() (0.5s)
2019-07-30T11:12:24.2558382+10:00:Thread#0:B:And I filter and select by newly created Program Request case number
2019-07-30T11:12:27.3341719+10:00:Thread#0:T:done: SmokeSOCS_Steps.ThenIFilterAndSelectByNewlyCreatedProgramRequestCaseNumber() (3.1s)
2019-07-30T11:12:27.3371712+10:00:Thread#0:B:And I add/save case note for Program Request
2019-07-30T11:12:27.3381758+10:00:Thread#0:B:  --- table step argument ---
2019-07-30T11:12:27.3401736+10:00:Thread#0:B:  | DurationHours | DurationMinutes | School Action                      |
2019-07-30T11:12:27.3401736+10:00:Thread#0:B:  | 1             | 00              | Complete a school based assessment |
2019-07-30T11:12:48.5079197+10:00:Thread#0:T:done: SmokeSOCS_Steps.ThenIAddSaveCaseNoteForProgramRequest(<table>) (21.2s)
2019-07-30T11:12:48.5139084+10:00:Thread#0:B:And I save the changes in Program Request
2019-07-30T11:12:48.6628263+10:00:Thread#0:T:error: element click intercepted: Element <input type="submit" name="cmdUpdateCase" id="cmdUpdateCase" value="Save Case" class="button"> is not clickable at point (606, 915). Other element would receive the click: <form action="/StudentSupportServices/Case.aspx/UpdateCaseDetails" enctype="multipart/form-data" id="caseDetailsForm" method="post">...</form>
2019-07-30T11:12:48.6628263+10:00:Thread#0:T:  (Session info: chrome=75.0.3770.100)
2019-07-30T11:12:48.6638263+10:00:Thread#0:B:And I attach consent form for Program Request
2019-07-30T11:12:48.6638263+10:00:Thread#0:T:skipped because of previous errors
2019-07-30T11:12:48.6648223+10:00:Thread#0:B:And I save and submit existing Program Request
2019-07-30T11:12:48.6648223+10:00:Thread#0:T:skipped because of previous errors
2019-07-30T11:12:48.6658250+10:00:Thread#0:B:And I logout of SOCS application
2019-07-30T11:12:48.6658250+10:00:Thread#0:T:skipped because of previous errors
2019-07-30T11:12:48.6668250+10:00:Thread#0:B:And I close the browser successfully
2019-07-30T11:12:48.6668250+10:00:Thread#0:T:skipped because of previous errors
2019-07-30T11:12:48.6678251+10:00:Thread#0:B:Given I navigate to SOCS application homepage
2019-07-30T11:12:48.6688251+10:00:Thread#0:T:skipped because of previous errors
2019-07-30T11:12:48.6688251+10:00:Thread#0:B:When I login using SSSTeamLeader username and password
2019-07-30T11:12:48.6698249+10:00:Thread#0:T:skipped because of previous errors
2019-07-30T11:12:48.6698249+10:00:Thread#0:B:And I press login button
2019-07-30T11:12:48.6708248+10:00:Thread#0:T:skipped because of previous errors
2019-07-30T11:12:48.6718423+10:00:Thread#0:B:Then I click Cases menu
2019-07-30T11:12:48.6728268+10:00:Thread#0:T:skipped because of previous errors
2019-07-30T11:12:48.6748269+10:00:Thread#0:B:And I filter and select by newly created case number
2019-07-30T11:12:48.6748269+10:00:Thread#0:T:skipped because of previous errors
2019-07-30T11:12:48.6758254+10:00:Thread#0:B:And I made some action
2019-07-30T11:12:48.6768249+10:00:Thread#0:B:  --- table step argument ---
2019-07-30T11:12:48.6778251+10:00:Thread#0:B:  | Priority   | Action               | Recommendations                                 |
2019-07-30T11:12:48.6788578+10:00:Thread#0:B:  | Priority 1 | Assign a Case Leader | The school agrees on an internal school program |
2019-07-30T11:12:48.6798242+10:00:Thread#0:T:skipped because of previous errors
2019-07-30T11:12:48.6798242+10:00:Thread#0:B:And I assign a case leader
2019-07-30T11:12:48.6808252+10:00:Thread#0:B:  --- table step argument ---
2019-07-30T11:12:48.6808252+10:00:Thread#0:B:  | FirstName           | LastName | UserRole         | Specialty    |
2019-07-30T11:12:48.6818251+10:00:Thread#0:B:  | SOCS SSSStaffMember | Test     | SSS Staff Member | Psychologist |
2019-07-30T11:12:48.6818251+10:00:Thread#0:T:skipped because of previous errors
2019-07-30T11:12:48.6828249+10:00:Thread#0:B:And I logout of SOCS application
2019-07-30T11:12:48.6828249+10:00:Thread#0:T:skipped because of previous errors
2019-07-30T11:12:48.6838250+10:00:Thread#0:B:And I close the browser successfully
2019-07-30T11:12:48.6848248+10:00:Thread#0:T:skipped because of previous errors
2019-07-30T11:12:48.6858242+10:00:Thread#0:B:Given I navigate to SOCS application homepage
2019-07-30T11:12:48.6868249+10:00:Thread#0:T:skipped because of previous errors
2019-07-30T11:12:48.6868249+10:00:Thread#0:B:When I login using SSSStaffMember username and password
2019-07-30T11:12:48.6878234+10:00:Thread#0:T:skipped because of previous errors
2019-07-30T11:12:48.6888304+10:00:Thread#0:B:And I press login button
2019-07-30T11:12:48.6898330+10:00:Thread#0:T:skipped because of previous errors
2019-07-30T11:12:48.6898330+10:00:Thread#0:B:Then I click Cases menu
2019-07-30T11:12:48.6908257+10:00:Thread#0:T:skipped because of previous errors
2019-07-30T11:12:48.6918254+10:00:Thread#0:B:And I filter and select by newly created case number
2019-07-30T11:12:48.6928259+10:00:Thread#0:T:skipped because of previous errors
2019-07-30T11:12:48.6938257+10:00:Thread#0:B:And I select Service
2019-07-30T11:12:48.6938257+10:00:Thread#0:B:  --- table step argument ---
2019-07-30T11:12:48.6958651+10:00:Thread#0:B:  | Service type         |
2019-07-30T11:12:48.6968251+10:00:Thread#0:B:  | Learning/Development |
2019-07-30T11:12:48.6968251+10:00:Thread#0:T:skipped because of previous errors
2019-07-30T11:12:48.6978258+10:00:Thread#0:B:And I assign a case worker
2019-07-30T11:12:48.6978258+10:00:Thread#0:B:  --- table step argument ---
2019-07-30T11:12:48.6988255+10:00:Thread#0:B:  | FirstName           | LastName | UserRole         | Specialty    |
2019-07-30T11:12:48.6988255+10:00:Thread#0:B:  | SOCS SSSStaffMember | Test     | SSS Staff Member | Psychologist |
2019-07-30T11:12:48.6998253+10:00:Thread#0:T:skipped because of previous errors
2019-07-30T11:12:48.6998253+10:00:Thread#0:B:And I logout of SOCS application
2019-07-30T11:12:48.7008255+10:00:Thread#0:T:skipped because of previous errors
2019-07-30T11:12:48.7008255+10:00:Thread#0:B:And I close the browser successfully
2019-07-30T11:12:48.7018251+10:00:Thread#0:T:skipped because of previous errors
2019-07-30T11:12:48.7028241+10:00:Thread#0:B:Given I navigate to SOCS application homepage
2019-07-30T11:12:48.7038254+10:00:Thread#0:T:skipped because of previous errors
2019-07-30T11:12:48.7048249+10:00:Thread#0:B:When I login using SSSStaffMember username and password
2019-07-30T11:12:48.7058234+10:00:Thread#0:T:skipped because of previous errors
2019-07-30T11:12:48.7068227+10:00:Thread#0:B:And I press login button
2019-07-30T11:12:48.7078267+10:00:Thread#0:T:skipped because of previous errors
2019-07-30T11:12:48.7078267+10:00:Thread#0:B:Then I click Cases menu
2019-07-30T11:12:48.7088245+10:00:Thread#0:T:skipped because of previous errors
2019-07-30T11:12:48.7098266+10:00:Thread#0:B:And I filter and select by newly created case number
2019-07-30T11:12:48.7098266+10:00:Thread#0:T:skipped because of previous errors
2019-07-30T11:12:48.7108251+10:00:Thread#0:B:And I select Service
2019-07-30T11:12:48.7108251+10:00:Thread#0:B:  --- table step argument ---
2019-07-30T11:12:48.7128263+10:00:Thread#0:B:  | Service type         |
2019-07-30T11:12:48.7128263+10:00:Thread#0:B:  | Learning/Development |
2019-07-30T11:12:48.7138260+10:00:Thread#0:T:skipped because of previous errors
2019-07-30T11:12:48.7138260+10:00:Thread#0:B:And I close the service
2019-07-30T11:12:48.7148232+10:00:Thread#0:B:  --- table step argument ---
2019-07-30T11:12:48.7148232+10:00:Thread#0:B:  | InterventionOutcomes | InterventionAims         |
2019-07-30T11:12:48.7158256+10:00:Thread#0:B:  | Issue is resolved    | Been completely achieved |
2019-07-30T11:12:48.7158256+10:00:Thread#0:T:skipped because of previous errors
2019-07-30T11:12:48.7168254+10:00:Thread#0:B:And I close the case
2019-07-30T11:12:48.7178251+10:00:Thread#0:T:skipped because of previous errors
2019-07-30T11:12:48.7178251+10:00:Thread#0:B:And I logout of SOCS application
2019-07-30T11:12:48.7188251+10:00:Thread#0:T:skipped because of previous errors
2019-07-30T11:12:48.7198243+10:00:Thread#0:B:And I close the browser successfully
2019-07-30T11:12:48.7208250+10:00:Thread#0:T:skipped because of previous errors
2019-07-30T11:12:48.7238266+10:00:Thread#0:Scheduler: get next test for thread 0
2019-07-30T11:12:48.7238266+10:00:Thread#:Scheduler: at the end of normal test queue
2019-07-30T11:12:48.7238266+10:00:Thread#0:Scheduler: enumerator for thread is at end
2019-07-30T11:12:48.7238266+10:00:Thread#0:Scheduler: No more tests for thread
2019-07-30T11:12:48.7258638+10:00:Thread#0: Test #63/2 is finished on thread #0 as Failed within 56.3424868 seconds
2019-07-30T11:12:48.7478231+10:00:Appdomain Disposed
2019-07-30T11:12:48.7488258+10:00:Trying to cancel thread
2019-07-30T11:12:48.7488258+10:00:Thread cancelled
2019-07-30T11:12:48.7558279+10:00:Thread#-1:Scheduler: get next test for thread -1
2019-07-30T11:12:48.7558279+10:00:Thread#:Scheduler: at the end of normal test queue
2019-07-30T11:12:48.7558279+10:00:Thread#-1:Scheduler: enumerator for thread is at end
2019-07-30T11:12:48.7608260+10:00;Thread#13;Info;test run finished
2019-07-30T11:12:48.7608260+10:00;Thread#13;Info;publishing test results
2019-07-30T11:12:48.7938245+10:00;Thread#13;Info;test results published
2019-07-30T11:12:48.7948245+10:00;Thread#13;Info;generating reports
2019-07-30T11:12:48.9308261+10:00;Thread#13;Info;Starting external report generation process
2019-07-30T11:12:50.7408544+10:00;Thread#13;Info;Successfully generated reports.
2019-07-30T11:12:50.7448346+10:00;Thread#13;Info;Successfully generated reports
2019-07-30T11:12:50.7558464+10:00:Total: 1 (test executions: 3)
2019-07-30T11:12:50.7588371+10:00:Succeeded: 0
2019-07-30T11:12:50.7598385+10:00:Ignored: 0
2019-07-30T11:12:50.7608339+10:00:Pending: 0
2019-07-30T11:12:50.7608339+10:00:Skipped: 0
2019-07-30T11:12:50.7608339+10:00:Failed: 1
2019-07-30T11:12:50.7738395+10:00;VSTestExecutionThread;Info;Adding attachments to VSTest
2019-07-30T11:12:50.7738395+10:00;VSTestExecutionThread;Info;adding Test Execution Report 'C:\Users\09946103\OneDrive - VIC - Department of Education and Training\Documents\SOCS\SOCS AT2\SOCS-AutomationTest\TestResults\SOCS_SmokeTest_SOCS_SmokeTest_2019-07-30T111017.html'
========== End of log file ==========
