﻿2019-07-26T10:01:45.0749301+10:00;Thread#1;Info;Reading test run result from Json file "C:\Users\09976245\AppData\Local\Temp\tmpA158.tmp".
2019-07-26T10:01:45.0768983+10:00;Thread#1;Info;Successfully read test run result from Json file "C:\Users\09976245\AppData\Local\Temp\tmpA158.tmp"
2019-07-26T10:01:45.0768983+10:00;Thread#1;Info;Deserializing test run result
2019-07-26T10:01:45.4299533+10:00;Thread#1;Info;Successfully deserialized test run result
2019-07-26T10:01:45.4299533+10:00;Thread#1;Info;Loading test run result
2019-07-26T10:01:45.4459106+10:00;Thread#1;Info;Successfully loaded test run result
2019-07-26T10:01:45.4538892+10:00;Thread#1;Info;creating 1 report(s)
2019-07-26T10:01:45.4538892+10:00;Thread#1;Info;generate Report ReportTemplate.cshtml
2019-07-26T10:01:46.6117864+10:00;Thread#1;Info;Finished generating reports.
========== End of log file ==========
