﻿2019-08-01T11:27:01.3965486+10:00;Thread#1;Info;Reading test run result from Json file "C:\Users\09946103\AppData\Local\Temp\tmp7084.tmp".
2019-08-01T11:27:01.4025488+10:00;Thread#1;Info;Successfully read test run result from Json file "C:\Users\09946103\AppData\Local\Temp\tmp7084.tmp"
2019-08-01T11:27:01.4025488+10:00;Thread#1;Info;Deserializing test run result
2019-08-01T11:27:02.2565563+10:00;Thread#1;Info;Successfully deserialized test run result
2019-08-01T11:27:02.2585564+10:00;Thread#1;Info;Loading test run result
2019-08-01T11:27:02.2905587+10:00;Thread#1;Info;Successfully loaded test run result
2019-08-01T11:27:02.3115592+10:00;Thread#1;Info;creating 1 report(s)
2019-08-01T11:27:02.3115592+10:00;Thread#1;Info;generate Report ReportTemplate.cshtml
2019-08-01T11:27:03.6545550+10:00;Thread#1;Info;Finished generating reports.
========== End of log file ==========
