﻿2019-07-26T16:27:23.6261134+10:00;Thread#1;Info;Reading test run result from Json file "C:\Users\09976245\AppData\Local\Temp\tmpB4AD.tmp".
2019-07-26T16:27:23.6290744+10:00;Thread#1;Info;Successfully read test run result from Json file "C:\Users\09976245\AppData\Local\Temp\tmpB4AD.tmp"
2019-07-26T16:27:23.6290744+10:00;Thread#1;Info;Deserializing test run result
2019-07-26T16:27:24.0379783+10:00;Thread#1;Info;Successfully deserialized test run result
2019-07-26T16:27:24.0379783+10:00;Thread#1;Info;Loading test run result
2019-07-26T16:27:24.0559304+10:00;Thread#1;Info;Successfully loaded test run result
2019-07-26T16:27:24.0639090+10:00;Thread#1;Info;creating 1 report(s)
2019-07-26T16:27:24.0639090+10:00;Thread#1;Info;generate Report ReportTemplate.cshtml
2019-07-26T16:27:24.9646495+10:00;Thread#1;Info;Finished generating reports.
========== End of log file ==========
